{
    "AO_D9132D_PERMISSIONS": {
        "origin": "Jira Portfolio, Live Plan",
        "description": "",
        "product": "Jira Portfolio, Live Plan",
        "action": [
            {
                "type": "select",
                "columns": "*",
                "manual": false
            },
            {
                "type": "update",
                "manual": false
            }
        ],
        "where": {
            "HOLDER_KEY": {
                "type": "user_key"
            }
        },
        "active": true
    },
    "AO_D9132D_PLAN": {
        "origin": "Jira Portfolio, Live Plan",
        "description": "",
        "product": "Jira Portfolio, Live Plan",
        "action": [
            {
                "type": "select",
                "columns": "*",
                "manual": false
            },
            {
                "type": "update",
                "manual": false
            }
        ],
        "where": {
            "CREATOR_ID": {
                "type": "user_key"
            }
        },
        "active": true
    },
    "AO_D9132D_PROGRAM": {
        "origin": "Jira Portfolio, Live Plan",
        "description": "",
        "product": "Jira Portfolio, Live Plan",
        "action": [
            {
                "type": "select",
                "columns": "*",
                "manual": false
            },
            {
                "type": "update",
                "manual": false
            }
        ],
        "where": {
            "OWNER": {
                "type": "user_key"
            }
        },
        "active": true
    },
    "AO_D9132D_SCENARIO_ABILITY": {
        "origin": "Jira Portfolio, Live Plan",
        "description": "",
        "product": "Jira Portfolio, Live Plan",
        "action": [
            {
                "type": "select",
                "columns": "*",
                "manual": false
            },
            {
                "type": "update",
                "manual": false
            }
        ],
        "where": {
            "LAST_CHANGE_USER": {
                "type": "user_key"
            }
        },
        "active": true
    },
    "AO_D9132D_SCENARIO_ISSUES": {
        "origin": "Jira Portfolio, Live Plan",
        "description": "",
        "product": "Jira Portfolio, Live Plan",
        "action": [
            {
                "type": "select",
                "columns": "*",
                "manual": false
            },
            {
                "type": "update",
                "manual": false
            }
        ],
        "where": {
            "LAST_CHANGE_USER": {
                "type": "user_key"
            }
        },
        "active": true
    },
    "AO_D9132D_SCENARIO_ISSUE_LINKS": {
        "origin": "Jira Portfolio, Live Plan",
        "description": "",
        "product": "Jira Portfolio, Live Plan",
        "action": [
            {
                "type": "select",
                "columns": "*",
                "manual": false
            },
            {
                "type": "update",
                "manual": false
            }
        ],
        "where": {
            "LAST_CHANGE_USER": {
                "type": "user_key"
            }
        },
        "active": true
    },
    "AO_D9132D_SCENARIO_PERSON": {
        "origin": "Jira Portfolio, Live Plan",
        "description": "",
        "product": "Jira Portfolio, Live Plan",
        "action": [
            {
                "type": "select",
                "columns": "*",
                "manual": false
            },
            {
                "type": "update",
                "manual": false
            }
        ],
        "where": {
            "LAST_CHANGE_USER": {
                "type": "user_key"
            }
        },
        "active": true
    },
    "AO_D9132D_SCENARIO_RESOURCE": {
        "origin": "Jira Portfolio, Live Plan",
        "description": "",
        "product": "Jira Portfolio, Live Plan",
        "action": [
            {
                "type": "select",
                "columns": "*",
                "manual": false
            },
            {
                "type": "update",
                "manual": false
            }
        ],
        "where": {
            "LAST_CHANGE_USER": {
                "type": "user_key"
            }
        },
        "active": true
    },
    "AO_D9132D_SCENARIO_SKILL": {
        "origin": "Jira Portfolio, Live Plan",
        "description": "",
        "product": "Jira Portfolio, Live Plan",
        "action": [
            {
                "type": "select",
                "columns": "*",
                "manual": false
            },
            {
                "type": "update",
                "manual": false
            }
        ],
        "where": {
            "LAST_CHANGE_USER": {
                "type": "user_key"
            }
        },
        "active": true
    },
    "AO_D9132D_SCENARIO_STAGE": {
        "origin": "Jira Portfolio, Live Plan",
        "description": "",
        "product": "Jira Portfolio, Live Plan",
        "action": [
            {
                "type": "select",
                "columns": "*",
                "manual": false
            },
            {
                "type": "update",
                "manual": false
            }
        ],
        "where": {
            "LAST_CHANGE_USER": {
                "type": "user_key"
            }
        },
        "active": true
    },
    "AO_D9132D_SCENARIO_TEAM": {
        "origin": "Jira Portfolio, Live Plan",
        "description": "",
        "product": "Jira Portfolio, Live Plan",
        "action": [
            {
                "type": "select",
                "columns": "*",
                "manual": false
            },
            {
                "type": "update",
                "manual": false
            }
        ],
        "where": {
            "LAST_CHANGE_USER": {
                "type": "user_key"
            }
        },
        "active": true
    },
    "AO_D9132D_SCENARIO_THEME": {
        "origin": "Jira Portfolio, Live Plan",
        "description": "",
        "product": "Jira Portfolio, Live Plan",
        "action": [
            {
                "type": "select",
                "columns": "*",
                "manual": false
            },
            {
                "type": "update",
                "manual": false
            }
        ],
        "where": {
            "LAST_CHANGE_USER": {
                "type": "user_key"
            }
        },
        "active": true
    },
    "AO_D9132D_SCENARIO_VERSION": {
        "origin": "Jira Portfolio, Live Plan",
        "description": "",
        "product": "Jira Portfolio, Live Plan",
        "action": [
            {
                "type": "select",
                "columns": "*",
                "manual": false
            },
            {
                "type": "update",
                "manual": false
            }
        ],
        "where": {
            "LAST_CHANGE_USER": {
                "type": "user_key"
            }
        },
        "active": true
    },
    "AO_D9132D_SCENARIO_XPVERSION": {
        "origin": "Jira Portfolio, Live Plan",
        "description": "",
        "product": "Jira Portfolio, Live Plan",
        "action": [
            {
                "type": "select",
                "columns": "*",
                "manual": false
            },
            {
                "type": "update",
                "manual": false
            }
        ],
        "where": {
            "LAST_CHANGE_USER": {
                "type": "user_key"
            }
        },
        "active": true
    },
    "AO_82B313_PERSON": {
        "origin": "Jira Portfolio, Team Management",
        "description": "",
        "product": "Jira Portfolio, Live Plan",
        "action": [
            {
                "type": "select",
                "columns": "*",
                "manual": false
            },
            {
                "type": "update",
                "manual": false
            }
        ],
        "where": {
            "JIRA_USER_ID": {
                "type": "user_key"
            }
        },
        "active": true
    }
}